{
    "name" : "",
    
    "mode" : "",
    
    "goal" : "",
    
    "elements" : 
    [
        {"type":"push", "param":"pink"}
    ],
    "tests" : 
    [ 
        ["pink","orange"]
    ],
    
    "trees":
    [
        [
            {"type":"pass"},  
            {"type":"pass"},
            {"type":"pass"},
            {"type":"sys_exit", "param":["pink"]}
        ]
    ]
}
